# Blender MTL File: 'None'
# Material Count: 3

newmtl CaptainAmerica_S03Mat
Ns 96.078431
Ka 0.000000 0.000000 0.000000
Kd 0.800000 0.800000 0.800000
Ks 0.010000 0.010000 0.010000
Ni 1.000000
d 1.000000
illum 2
map_Kd cap_catws.jpg

newmtl CaptainAmerica_S03_wpMat
Ns 96.078431
Ka 0.000000 0.000000 0.000000
Kd 0.800000 0.800000 0.800000
Ks 0.010000 0.010000 0.010000
Ni 1.000000
d 1.000000
illum 2
map_Kd cap_catwswp.png

newmtl Object001Mat
Ns 96.078431
Ka 0.000000 0.000000 0.000000
Kd 0.800000 0.800000 0.800000
Ks 0.010000 0.010000 0.010000
Ni 1.000000
d 1.000000
illum 2
map_Kd CaptainAmerica_AgeOfUltron_diff.png
